<svg xmlns="http://www.w3.org/2000/svg" viewBox="0 0 10.96 20.28">
  <title>facebook 2</title>
  <g >
    <g >
      <path d="M10.55,0H7.92A4.62,4.62,0,0,0,3.06,5v2.3H.41A.41.41,0,0,0,0,7.71V11a.41.41,0,0,0,.41.41H3.06v8.41a.41.41,0,0,0,.41.41H6.92a.41.41,0,0,0,.41-.41V11.45h3.09a.41.41,0,0,0,.41-.41V7.71a.42.42,0,0,0-.12-.29.41.41,0,0,0-.29-.12H7.33v-2c0-.94.22-1.41,1.44-1.41h1.77A.41.41,0,0,0,11,3.51V.42A.41.41,0,0,0,10.55,0Zm0,0" style="fill: #fff"/>
    </g>
  </g>
</svg>
