<?xml version="1.0" encoding="UTF-8"?>
<svg width="17px" height="11px" viewBox="0 0 17 11" version="1.1" xmlns="http://www.w3.org/2000/svg" xmlns:xlink="http://www.w3.org/1999/xlink">
    <!-- Generator: Sketch 53.1 (72631) - https://sketchapp.com -->
    <title>Shape</title>
    <desc>Created with Sketch.</desc>
    <g id="Page-1" stroke="none" stroke-width="1" fill="none" fill-rule="evenodd">
        <g id="Категорії-" transform="translate(-494.000000, -316.000000)" fill="#FFFFFF" fill-rule="nonzero">
            <g id="Content" transform="translate(365.000000, 243.000000)">
                <g id="Proposition1" transform="translate(0.000000, 60.000000)">
                    <g id="Illustration">
                        <g id="Comments" transform="translate(129.000000, 11.000000)">
                            <g id="eye" transform="translate(0.000000, 2.000000)">
                                <path d="M16.8038597,4.7715788 C15.1397196,1.91148913 12.0360104,0 8.50001146,0 C4.96247778,0 1.85950647,1.91286413 0.196163214,4.77154891 C-0.0653877382,5.22104953 -0.0653877382,5.77892058 0.196163214,6.2284212 C1.86033286,9.08854076 4.9640125,11 8.50001146,11 C12.0375451,11 15.1405165,9.08713587 16.8038597,6.2284212 C17.0653801,5.77892284 17.0653801,5.22107716 16.8038597,4.7715788 Z M12.2777881,4.66304348 C12.2777881,6.71008967 10.5864067,8.36956522 8.50001146,8.36956522 C6.41361624,8.36956522 4.7222348,6.71008967 4.7222348,4.66304348 C4.7222348,2.61599728 6.41361624,0.956521739 8.50001146,0.956521739 C10.5864067,0.956521739 12.2777881,2.61599728 12.2777881,4.66304348 Z M15.990162,5.74280707 C14.4570045,8.37784511 11.6244984,10.0434783 8.50001146,10.0434783 C5.36295162,10.0434783 2.53640732,8.36642663 1.00986089,5.74283696 C0.922709552,5.59298736 0.922709552,5.40704253 1.00986089,5.25719293 C1.86788842,3.78256522 3.17443838,2.55397283 4.77760284,1.79317935 C4.15689642,2.57636141 3.77779063,3.57404348 3.77779063,4.66304348 C3.77779063,7.22825543 5.87979869,9.32608696 8.50001146,9.32608696 C11.1199586,9.32608696 13.2222323,7.228375 13.2222323,4.66304348 C13.2222323,3.5746712 12.8434807,2.57680978 12.2224496,1.79317935 C13.8091158,2.54611141 15.1228967,3.76663315 15.9901915,5.25719293 C16.0773222,5.40704046 16.0773109,5.5929704 15.990162,5.74280707 Z M6.61112313,4.54347826 C6.61112313,4.21775272 6.69160748,3.91109783 6.83336265,3.64264402 L6.83336265,3.64324185 C6.83336265,4.07827989 7.18159692,4.43096739 7.61114193,4.43096739 C8.04068695,4.43096739 8.38892122,4.07827989 8.38892122,3.64324185 C8.38892122,3.2082038 8.04068695,2.8555163 7.61114193,2.8555163 L7.61055166,2.8555163 C7.87561581,2.71194837 8.17839871,2.63043478 8.50001146,2.63043478 C9.54320907,2.63043478 10.3888998,3.48694022 10.3888998,4.54347826 C10.3888998,5.6000163 9.54320907,6.45652174 8.50001146,6.45652174 C7.45681385,6.45652174 6.61112313,5.6000163 6.61112313,4.54347826 Z" id="Shape"></path>
                            </g>
                        </g>
                    </g>
                </g>
            </g>
        </g>
    </g>
</svg>